Ferritina
…
Tipo de pauta

   0   25 41.6   50 62.5 83.3  100  125  200  250  500  600 1000 
 128    1    1   25  102    1   94   13   10    2    2    1   10 

Sin datos previos                 0              0-50                50 
               58               128                 2                25 
           50-100               100               125               200 
              103                94                13                10 
            > 200 
               15 

# A tibble: 64 × 6
# Groups:   Mes, Aleatorización [14]
   Mes     Aleatorización Dosis_cat media_logFerr sd_logFerr     n
   <ord>   <fct>          <ord>             <dbl>      <dbl> <int>
 1 0 meses Venofer        0                  5.80      0.865     8
 2 0 meses Venofer        0-50               6.08     NA         1
 3 0 meses Venofer        50                 6.11      0.329     8
 4 0 meses Venofer        50-100             6.19     NA         1
 5 0 meses Venofer        100                5.14      0.727     3
 6 0 meses Venofer        125                4.69      1.18      2
 7 0 meses Venofer        200                6.41      0.212     6
 8 0 meses Venofer        > 200              5.34     NA         1
 9 0 meses Ferinject      0                  5.26      0.735     7
10 0 meses Ferinject      0-50               5.33     NA         1
# ℹ 54 more rows
…
